{
  "Author": "jdsmith2816",
  "Name": "DelvUI",
  "InternalName": "DelvUI",
  "AssemblyVersion": "1.0.0.0",
  "Description": "Provides an ElvUI style HUD for FFXIV",
  "ApplicableVersion": "any",
  "RepoUrl": "https://github.com/jdsmith2816/delvui",
  "DalamudApiLevel": 4,
  "LoadPriority": 0
}
